[29-Dec-2016 11:08:28 Europe/Moscow] Hello, errors!
[29-Dec-2016 11:20:19 Europe/Moscow] PHP Warning:  unlink(./phpcrawl_tmp_63441482998908\urlcache.db3): Permission denied in D:\OpenServer\domains\localhost\abamet\crawler_sitemap\phpcrawl\libs\UrlCache\PHPCrawlerSQLiteURLCache.class.php on line 309
[29-Dec-2016 11:20:19 Europe/Moscow] PHP Stack trace:
[29-Dec-2016 11:20:19 Europe/Moscow] PHP   1. {main}() D:\OpenServer\domains\localhost\abamet\crawler_sitemap\sitemap.php:0
[29-Dec-2016 11:20:19 Europe/Moscow] PHP   2. PHPCrawler->cleanup() D:\OpenServer\domains\localhost\abamet\crawler_sitemap\sitemap.php:62
[29-Dec-2016 11:20:19 Europe/Moscow] PHP   3. PHPCrawlerSQLiteURLCache->cleanup() D:\OpenServer\domains\localhost\abamet\crawler_sitemap\phpcrawl\libs\PHPCrawler.class.php:904
[29-Dec-2016 11:20:19 Europe/Moscow] PHP   4. unlink() D:\OpenServer\domains\localhost\abamet\crawler_sitemap\phpcrawl\libs\UrlCache\PHPCrawlerSQLiteURLCache.class.php:309
[29-Dec-2016 11:20:19 Europe/Moscow] PHP Warning:  unlink(./phpcrawl_tmp_63441482998908\\urlcache.db3): Permission denied in D:\OpenServer\domains\localhost\abamet\crawler_sitemap\phpcrawl\libs\Utils\PHPCrawlerUtils.class.php on line 466
[29-Dec-2016 11:20:19 Europe/Moscow] PHP Stack trace:
[29-Dec-2016 11:20:19 Europe/Moscow] PHP   1. {main}() D:\OpenServer\domains\localhost\abamet\crawler_sitemap\sitemap.php:0
[29-Dec-2016 11:20:19 Europe/Moscow] PHP   2. PHPCrawler->cleanup() D:\OpenServer\domains\localhost\abamet\crawler_sitemap\sitemap.php:62
[29-Dec-2016 11:20:19 Europe/Moscow] PHP   3. PHPCrawlerUtils::rmDir() D:\OpenServer\domains\localhost\abamet\crawler_sitemap\phpcrawl\libs\PHPCrawler.class.php:907
[29-Dec-2016 11:20:19 Europe/Moscow] PHP   4. unlink() D:\OpenServer\domains\localhost\abamet\crawler_sitemap\phpcrawl\libs\Utils\PHPCrawlerUtils.class.php:466
[29-Dec-2016 11:20:19 Europe/Moscow] PHP Warning:  unlink(./phpcrawl_tmp_63441482998908\\urlcache.db3-shm): Permission denied in D:\OpenServer\domains\localhost\abamet\crawler_sitemap\phpcrawl\libs\Utils\PHPCrawlerUtils.class.php on line 466
[29-Dec-2016 11:20:19 Europe/Moscow] PHP Stack trace:
[29-Dec-2016 11:20:19 Europe/Moscow] PHP   1. {main}() D:\OpenServer\domains\localhost\abamet\crawler_sitemap\sitemap.php:0
[29-Dec-2016 11:20:19 Europe/Moscow] PHP   2. PHPCrawler->cleanup() D:\OpenServer\domains\localhost\abamet\crawler_sitemap\sitemap.php:62
[29-Dec-2016 11:20:19 Europe/Moscow] PHP   3. PHPCrawlerUtils::rmDir() D:\OpenServer\domains\localhost\abamet\crawler_sitemap\phpcrawl\libs\PHPCrawler.class.php:907
[29-Dec-2016 11:20:19 Europe/Moscow] PHP   4. unlink() D:\OpenServer\domains\localhost\abamet\crawler_sitemap\phpcrawl\libs\Utils\PHPCrawlerUtils.class.php:466
[29-Dec-2016 11:20:19 Europe/Moscow] PHP Warning:  unlink(./phpcrawl_tmp_63441482998908\\urlcache.db3-wal): Permission denied in D:\OpenServer\domains\localhost\abamet\crawler_sitemap\phpcrawl\libs\Utils\PHPCrawlerUtils.class.php on line 466
[29-Dec-2016 11:20:19 Europe/Moscow] PHP Stack trace:
[29-Dec-2016 11:20:19 Europe/Moscow] PHP   1. {main}() D:\OpenServer\domains\localhost\abamet\crawler_sitemap\sitemap.php:0
[29-Dec-2016 11:20:19 Europe/Moscow] PHP   2. PHPCrawler->cleanup() D:\OpenServer\domains\localhost\abamet\crawler_sitemap\sitemap.php:62
[29-Dec-2016 11:20:19 Europe/Moscow] PHP   3. PHPCrawlerUtils::rmDir() D:\OpenServer\domains\localhost\abamet\crawler_sitemap\phpcrawl\libs\PHPCrawler.class.php:907
[29-Dec-2016 11:20:19 Europe/Moscow] PHP   4. unlink() D:\OpenServer\domains\localhost\abamet\crawler_sitemap\phpcrawl\libs\Utils\PHPCrawlerUtils.class.php:466
[29-Dec-2016 11:20:19 Europe/Moscow] PHP Warning:  rmdir(./phpcrawl_tmp_63441482998908\): Directory not empty in D:\OpenServer\domains\localhost\abamet\crawler_sitemap\phpcrawl\libs\Utils\PHPCrawlerUtils.class.php on line 471
[29-Dec-2016 11:20:19 Europe/Moscow] PHP Stack trace:
[29-Dec-2016 11:20:19 Europe/Moscow] PHP   1. {main}() D:\OpenServer\domains\localhost\abamet\crawler_sitemap\sitemap.php:0
[29-Dec-2016 11:20:19 Europe/Moscow] PHP   2. PHPCrawler->cleanup() D:\OpenServer\domains\localhost\abamet\crawler_sitemap\sitemap.php:62
[29-Dec-2016 11:20:19 Europe/Moscow] PHP   3. PHPCrawlerUtils::rmDir() D:\OpenServer\domains\localhost\abamet\crawler_sitemap\phpcrawl\libs\PHPCrawler.class.php:907
[29-Dec-2016 11:20:19 Europe/Moscow] PHP   4. rmdir() D:\OpenServer\domains\localhost\abamet\crawler_sitemap\phpcrawl\libs\Utils\PHPCrawlerUtils.class.php:471
[04-Jan-2017 12:18:14 Europe/Moscow] Hello, errors!
[04-Jan-2017 12:18:15 Europe/Moscow] PHP Fatal error:  Uncaught exception 'Exception' with message 'Couldn't find any previous aborted crawling-process with crawler-id '133981479389804'' in D:\OpenServer\domains\localhost\abamet\crawler_sitemap\phpcrawl\libs\PHPCrawler.class.php:1987
Stack trace:
#0 D:\OpenServer\domains\localhost\abamet\crawler_sitemap\sitemap.php(39): PHPCrawler->resume('133981479389804')
#1 {main}
  thrown in D:\OpenServer\domains\localhost\abamet\crawler_sitemap\phpcrawl\libs\PHPCrawler.class.php on line 1987
[04-Jan-2017 12:19:18 Europe/Moscow] Hello, errors!
[04-Jan-2017 12:19:18 Europe/Moscow] PHP Fatal error:  Uncaught exception 'Exception' with message 'Couldn't find any previous aborted crawling-process with crawler-id ''' in D:\OpenServer\domains\localhost\abamet\crawler_sitemap\phpcrawl\libs\PHPCrawler.class.php:1987
Stack trace:
#0 D:\OpenServer\domains\localhost\abamet\crawler_sitemap\sitemap.php(39): PHPCrawler->resume('')
#1 {main}
  thrown in D:\OpenServer\domains\localhost\abamet\crawler_sitemap\phpcrawl\libs\PHPCrawler.class.php on line 1987
[04-Jan-2017 12:19:33 Europe/Moscow] Hello, errors!
[04-Jan-2017 12:30:51 Europe/Moscow] PHP Warning:  unlink(./phpcrawl_tmp_47601483521573\urlcache.db3): Permission denied in D:\OpenServer\domains\localhost\abamet\crawler_sitemap\phpcrawl\libs\UrlCache\PHPCrawlerSQLiteURLCache.class.php on line 309
[04-Jan-2017 12:30:51 Europe/Moscow] PHP Stack trace:
[04-Jan-2017 12:30:51 Europe/Moscow] PHP   1. {main}() D:\OpenServer\domains\localhost\abamet\crawler_sitemap\sitemap.php:0
[04-Jan-2017 12:30:51 Europe/Moscow] PHP   2. PHPCrawler->cleanup() D:\OpenServer\domains\localhost\abamet\crawler_sitemap\sitemap.php:62
[04-Jan-2017 12:30:51 Europe/Moscow] PHP   3. PHPCrawlerSQLiteURLCache->cleanup() D:\OpenServer\domains\localhost\abamet\crawler_sitemap\phpcrawl\libs\PHPCrawler.class.php:904
[04-Jan-2017 12:30:51 Europe/Moscow] PHP   4. unlink() D:\OpenServer\domains\localhost\abamet\crawler_sitemap\phpcrawl\libs\UrlCache\PHPCrawlerSQLiteURLCache.class.php:309
[04-Jan-2017 12:30:51 Europe/Moscow] PHP Warning:  unlink(./phpcrawl_tmp_47601483521573\\urlcache.db3): Permission denied in D:\OpenServer\domains\localhost\abamet\crawler_sitemap\phpcrawl\libs\Utils\PHPCrawlerUtils.class.php on line 466
[04-Jan-2017 12:30:51 Europe/Moscow] PHP Stack trace:
[04-Jan-2017 12:30:51 Europe/Moscow] PHP   1. {main}() D:\OpenServer\domains\localhost\abamet\crawler_sitemap\sitemap.php:0
[04-Jan-2017 12:30:51 Europe/Moscow] PHP   2. PHPCrawler->cleanup() D:\OpenServer\domains\localhost\abamet\crawler_sitemap\sitemap.php:62
[04-Jan-2017 12:30:51 Europe/Moscow] PHP   3. PHPCrawlerUtils::rmDir() D:\OpenServer\domains\localhost\abamet\crawler_sitemap\phpcrawl\libs\PHPCrawler.class.php:907
[04-Jan-2017 12:30:51 Europe/Moscow] PHP   4. unlink() D:\OpenServer\domains\localhost\abamet\crawler_sitemap\phpcrawl\libs\Utils\PHPCrawlerUtils.class.php:466
[04-Jan-2017 12:30:51 Europe/Moscow] PHP Warning:  unlink(./phpcrawl_tmp_47601483521573\\urlcache.db3-shm): Permission denied in D:\OpenServer\domains\localhost\abamet\crawler_sitemap\phpcrawl\libs\Utils\PHPCrawlerUtils.class.php on line 466
[04-Jan-2017 12:30:51 Europe/Moscow] PHP Stack trace:
[04-Jan-2017 12:30:51 Europe/Moscow] PHP   1. {main}() D:\OpenServer\domains\localhost\abamet\crawler_sitemap\sitemap.php:0
[04-Jan-2017 12:30:51 Europe/Moscow] PHP   2. PHPCrawler->cleanup() D:\OpenServer\domains\localhost\abamet\crawler_sitemap\sitemap.php:62
[04-Jan-2017 12:30:51 Europe/Moscow] PHP   3. PHPCrawlerUtils::rmDir() D:\OpenServer\domains\localhost\abamet\crawler_sitemap\phpcrawl\libs\PHPCrawler.class.php:907
[04-Jan-2017 12:30:51 Europe/Moscow] PHP   4. unlink() D:\OpenServer\domains\localhost\abamet\crawler_sitemap\phpcrawl\libs\Utils\PHPCrawlerUtils.class.php:466
[04-Jan-2017 12:30:51 Europe/Moscow] PHP Warning:  unlink(./phpcrawl_tmp_47601483521573\\urlcache.db3-wal): Permission denied in D:\OpenServer\domains\localhost\abamet\crawler_sitemap\phpcrawl\libs\Utils\PHPCrawlerUtils.class.php on line 466
[04-Jan-2017 12:30:51 Europe/Moscow] PHP Stack trace:
[04-Jan-2017 12:30:51 Europe/Moscow] PHP   1. {main}() D:\OpenServer\domains\localhost\abamet\crawler_sitemap\sitemap.php:0
[04-Jan-2017 12:30:51 Europe/Moscow] PHP   2. PHPCrawler->cleanup() D:\OpenServer\domains\localhost\abamet\crawler_sitemap\sitemap.php:62
[04-Jan-2017 12:30:52 Europe/Moscow] PHP   3. PHPCrawlerUtils::rmDir() D:\OpenServer\domains\localhost\abamet\crawler_sitemap\phpcrawl\libs\PHPCrawler.class.php:907
[04-Jan-2017 12:30:52 Europe/Moscow] PHP   4. unlink() D:\OpenServer\domains\localhost\abamet\crawler_sitemap\phpcrawl\libs\Utils\PHPCrawlerUtils.class.php:466
[04-Jan-2017 12:30:52 Europe/Moscow] PHP Warning:  rmdir(./phpcrawl_tmp_47601483521573\): Directory not empty in D:\OpenServer\domains\localhost\abamet\crawler_sitemap\phpcrawl\libs\Utils\PHPCrawlerUtils.class.php on line 471
[04-Jan-2017 12:30:52 Europe/Moscow] PHP Stack trace:
[04-Jan-2017 12:30:52 Europe/Moscow] PHP   1. {main}() D:\OpenServer\domains\localhost\abamet\crawler_sitemap\sitemap.php:0
[04-Jan-2017 12:30:52 Europe/Moscow] PHP   2. PHPCrawler->cleanup() D:\OpenServer\domains\localhost\abamet\crawler_sitemap\sitemap.php:62
[04-Jan-2017 12:30:52 Europe/Moscow] PHP   3. PHPCrawlerUtils::rmDir() D:\OpenServer\domains\localhost\abamet\crawler_sitemap\phpcrawl\libs\PHPCrawler.class.php:907
[04-Jan-2017 12:30:52 Europe/Moscow] PHP   4. rmdir() D:\OpenServer\domains\localhost\abamet\crawler_sitemap\phpcrawl\libs\Utils\PHPCrawlerUtils.class.php:471
[04-Jan-2017 12:37:59 Europe/Moscow] Hello, errors!
[04-Jan-2017 12:48:54 Europe/Moscow] PHP Warning:  unlink(./phpcrawl_tmp_47601483522679\urlcache.db3): Permission denied in D:\OpenServer\domains\localhost\abamet\crawler_sitemap\phpcrawl\libs\UrlCache\PHPCrawlerSQLiteURLCache.class.php on line 309
[04-Jan-2017 12:48:54 Europe/Moscow] PHP Stack trace:
[04-Jan-2017 12:48:54 Europe/Moscow] PHP   1. {main}() D:\OpenServer\domains\localhost\abamet\crawler_sitemap\sitemap.php:0
[04-Jan-2017 12:48:54 Europe/Moscow] PHP   2. PHPCrawler->cleanup() D:\OpenServer\domains\localhost\abamet\crawler_sitemap\sitemap.php:62
[04-Jan-2017 12:48:54 Europe/Moscow] PHP   3. PHPCrawlerSQLiteURLCache->cleanup() D:\OpenServer\domains\localhost\abamet\crawler_sitemap\phpcrawl\libs\PHPCrawler.class.php:904
[04-Jan-2017 12:48:54 Europe/Moscow] PHP   4. unlink() D:\OpenServer\domains\localhost\abamet\crawler_sitemap\phpcrawl\libs\UrlCache\PHPCrawlerSQLiteURLCache.class.php:309
[04-Jan-2017 12:48:54 Europe/Moscow] PHP Warning:  unlink(./phpcrawl_tmp_47601483522679\\urlcache.db3): Permission denied in D:\OpenServer\domains\localhost\abamet\crawler_sitemap\phpcrawl\libs\Utils\PHPCrawlerUtils.class.php on line 466
[04-Jan-2017 12:48:54 Europe/Moscow] PHP Stack trace:
[04-Jan-2017 12:48:54 Europe/Moscow] PHP   1. {main}() D:\OpenServer\domains\localhost\abamet\crawler_sitemap\sitemap.php:0
[04-Jan-2017 12:48:54 Europe/Moscow] PHP   2. PHPCrawler->cleanup() D:\OpenServer\domains\localhost\abamet\crawler_sitemap\sitemap.php:62
[04-Jan-2017 12:48:54 Europe/Moscow] PHP   3. PHPCrawlerUtils::rmDir() D:\OpenServer\domains\localhost\abamet\crawler_sitemap\phpcrawl\libs\PHPCrawler.class.php:907
[04-Jan-2017 12:48:54 Europe/Moscow] PHP   4. unlink() D:\OpenServer\domains\localhost\abamet\crawler_sitemap\phpcrawl\libs\Utils\PHPCrawlerUtils.class.php:466
[04-Jan-2017 12:48:54 Europe/Moscow] PHP Warning:  unlink(./phpcrawl_tmp_47601483522679\\urlcache.db3-shm): Permission denied in D:\OpenServer\domains\localhost\abamet\crawler_sitemap\phpcrawl\libs\Utils\PHPCrawlerUtils.class.php on line 466
[04-Jan-2017 12:48:54 Europe/Moscow] PHP Stack trace:
[04-Jan-2017 12:48:54 Europe/Moscow] PHP   1. {main}() D:\OpenServer\domains\localhost\abamet\crawler_sitemap\sitemap.php:0
[04-Jan-2017 12:48:54 Europe/Moscow] PHP   2. PHPCrawler->cleanup() D:\OpenServer\domains\localhost\abamet\crawler_sitemap\sitemap.php:62
[04-Jan-2017 12:48:54 Europe/Moscow] PHP   3. PHPCrawlerUtils::rmDir() D:\OpenServer\domains\localhost\abamet\crawler_sitemap\phpcrawl\libs\PHPCrawler.class.php:907
[04-Jan-2017 12:48:54 Europe/Moscow] PHP   4. unlink() D:\OpenServer\domains\localhost\abamet\crawler_sitemap\phpcrawl\libs\Utils\PHPCrawlerUtils.class.php:466
[04-Jan-2017 12:48:54 Europe/Moscow] PHP Warning:  unlink(./phpcrawl_tmp_47601483522679\\urlcache.db3-wal): Permission denied in D:\OpenServer\domains\localhost\abamet\crawler_sitemap\phpcrawl\libs\Utils\PHPCrawlerUtils.class.php on line 466
[04-Jan-2017 12:48:54 Europe/Moscow] PHP Stack trace:
[04-Jan-2017 12:48:54 Europe/Moscow] PHP   1. {main}() D:\OpenServer\domains\localhost\abamet\crawler_sitemap\sitemap.php:0
[04-Jan-2017 12:48:54 Europe/Moscow] PHP   2. PHPCrawler->cleanup() D:\OpenServer\domains\localhost\abamet\crawler_sitemap\sitemap.php:62
[04-Jan-2017 12:48:54 Europe/Moscow] PHP   3. PHPCrawlerUtils::rmDir() D:\OpenServer\domains\localhost\abamet\crawler_sitemap\phpcrawl\libs\PHPCrawler.class.php:907
[04-Jan-2017 12:48:54 Europe/Moscow] PHP   4. unlink() D:\OpenServer\domains\localhost\abamet\crawler_sitemap\phpcrawl\libs\Utils\PHPCrawlerUtils.class.php:466
[04-Jan-2017 12:48:54 Europe/Moscow] PHP Warning:  rmdir(./phpcrawl_tmp_47601483522679\): Directory not empty in D:\OpenServer\domains\localhost\abamet\crawler_sitemap\phpcrawl\libs\Utils\PHPCrawlerUtils.class.php on line 471
[04-Jan-2017 12:48:54 Europe/Moscow] PHP Stack trace:
[04-Jan-2017 12:48:54 Europe/Moscow] PHP   1. {main}() D:\OpenServer\domains\localhost\abamet\crawler_sitemap\sitemap.php:0
[04-Jan-2017 12:48:54 Europe/Moscow] PHP   2. PHPCrawler->cleanup() D:\OpenServer\domains\localhost\abamet\crawler_sitemap\sitemap.php:62
[04-Jan-2017 12:48:54 Europe/Moscow] PHP   3. PHPCrawlerUtils::rmDir() D:\OpenServer\domains\localhost\abamet\crawler_sitemap\phpcrawl\libs\PHPCrawler.class.php:907
[04-Jan-2017 12:48:54 Europe/Moscow] PHP   4. rmdir() D:\OpenServer\domains\localhost\abamet\crawler_sitemap\phpcrawl\libs\Utils\PHPCrawlerUtils.class.php:471
[04-Jan-2017 13:14:35 Europe/Moscow] Hello, errors!
[04-Jan-2017 13:14:35 Europe/Moscow] PHP Warning:  filemtime(): stat failed for /stanki-used/mill/haas-super-mini-mill-2014.php in D:\OpenServer\domains\localhost\abamet\crawler_sitemap\sitemap.php on line 11
[04-Jan-2017 13:14:35 Europe/Moscow] PHP Stack trace:
[04-Jan-2017 13:14:35 Europe/Moscow] PHP   1. {main}() D:\OpenServer\domains\localhost\abamet\crawler_sitemap\sitemap.php:0
[04-Jan-2017 13:14:35 Europe/Moscow] PHP   2. filemtime() D:\OpenServer\domains\localhost\abamet\crawler_sitemap\sitemap.php:11
